<svg width="22" height="16" viewBox="0 0 22 16" fill="none" xmlns="http://www.w3.org/2000/svg">
<path d="M20.4546 3.67077L6.82044 3.67078" stroke="#2A2A2A" stroke-width="1.5"/>
<circle cx="3.67058" cy="3.6707" r="2.92073" transform="rotate(-180 3.67058 3.6707)" stroke="#2A2A2A" stroke-width="1.5"/>
<path d="M1.06836 12.0618L14.7025 12.0618" stroke="#2A2A2A" stroke-width="1.5"/>
<circle cx="17.8524" cy="12.0617" r="2.92073" stroke="#2A2A2A" stroke-width="1.5"/>
</svg>
