{
  "err": 1,
  "elements": [
    {
      "errName": "phone",
      "message": "Сообщение об успехе или ошибке"
    },
    {
      "errName": "site",
      "message": "Сообщение об успехе или ошибке"
    }
  ]
}
