<svg width="13" height="17" viewBox="0 0 13 17" fill="none" xmlns="http://www.w3.org/2000/svg">
<path d="M13 14.8991C12.966 12.7199 12.2871 10.7384 11.08 9.30371C9.87992 7.8778 8.25353 7.09253 6.49993 7.09253C4.74632 7.09253 3.11994 7.8778 1.91987 9.30371C0.713935 10.7369 0.0354622 12.7156 0 14.8921C0.681909 15.2337 3.50374 16.5491 6.49993 16.5491C9.73984 16.5491 12.3676 15.2414 13 14.8991Z" fill="#0F0F0F"/>
<path d="M6.49973 6.5014C8.29504 6.5014 9.75043 5.04602 9.75043 3.2507C9.75043 1.45539 8.29504 0 6.49973 0C4.70441 0 3.24902 1.45539 3.24902 3.2507C3.24902 5.04602 4.70441 6.5014 6.49973 6.5014Z" fill="#0F0F0F"/>
</svg>
